Reading from files – Intro to Data Analysis in R
…
library(tidyverse)

Read in the file. As whitespace is the delimiter, we need to use read_table. Note that read_delim with delim=" " is the wrong choice as it will try to split on single whitespace characters. read_table is the right choice for multiple whitespace separators.

Note that we should read the DATE as an integer, as it is a year.

temperature <- read_table(
    "https://raw.githubusercontent.com/Bristol-Training/intro-data-analysis-r/refs/heads/main/data/cetml1659on.txt",
    skip=6,
    na=c("-99.99", "-99.9"),
    col_types=cols("DATE"=col_integer())
)
temperature

# A tibble: 362 × 14
    DATE   JAN   FEB   MAR   APR   MAY   JUN   JUL   AUG   SEP   OCT   NOV   DEC
   <int> <dbl> <dbl> <dbl> <dbl> <dbl> <dbl> <dbl> <dbl> <dbl> <dbl> <dbl> <dbl>
 1  1659     3     4     6     7    11    13    16    16    13    10     5     2
 2  1660     0     4     6     9    11    14    15    16    13    10     6     5
 3  1661     5     5     6     8    11    14    15    15    13    11     8     6
 4  1662     5     6     6     8    11    15    15    15    13    11     6     3
 5  1663     1     1     5     7    10    14    15    15    13    10     7     5
 6  1664     4     5     5     8    11    15    16    16    13     9     6     4
 7  1665     1     1     5     7    10    14    16    15    13     9     6     2
 8  1666     4     5     6     8    11    15    18    17    14    11     6     3
 9  1667     0     4     2     7    10    15    17    16    13     9     6     3
10  1668     5     5     5     8    10    14    16    16    14    10     6     5
# ℹ 352 more rows
# ℹ 1 more variable: YEAR <dbl>
…
