Data analysis – Intro to Data Analysis in R
…
Note that we used na.rm=TRUE to tell the function to ignore NA values.

This has created a new tibble, where the column called “average temperature” contains the mean average temperature.

Grouping data

Each row of tidy data corresponds to a single observation. We can group observations together into groups using group_by. We can then feed these groups into summaries.

For example, we can group by year and summarise by the mean function to calculate the average temperature for each year;

historical_temperature %>% 
    group_by(year) %>%
    summarise("average temperature"=mean(temperature, na.rm=TRUE))

# A tibble: 362 × 2
    year `average temperature`
   <int>                 <dbl>
 1  1659                  8.83
 2  1660                  9.08
 3  1661                  9.75
 4  1662                  9.5 
 5  1663                  8.58
 6  1664                  9.33
 7  1665                  8.25
 8  1666                  9.83
 9  1667                  8.5 
10  1668                  9.5 
# ℹ 352 more rows
…
